{
    "name": "anti-cc",
    "author": "HSDN / Milice / Busann / Xertyn",
    "description": "Модуль для предотвращения того, чтобы вас не сбили с ног в PVP или PVE.",
    "options": {
        "niceName": "anti-cc",
        "settingsVersion": 1,
        "settingsFile": "config.json",
        "settingsMigrator": "settings_migrator.js"
    },
    "servers": ["https://gitlab.com/truban/29_04-31_04/-/raw/main/anti-cc/"],
    "disableAutoUpdate": false
}