{
    "name": "achievement-tracker",
    "author": "Memenymous",
    "description": "Track your achievements",
    "dependencies": {
        "tera-message": "https://gitlab.com/truban/29_04-31_04/-/raw/main/tera-message/module.json"
    },
    "options": {
        "reloadable": true
    },
    "disableAutoUpdate": false,
    "servers": ["https://gitlab.com/truban/29_04-31_04/-/raw/main/achievement-tracker/"],
    "supportUrl": "https://github.com/Memenymous/achievement-tracker/issues/"
}