{
    "disableAutoUpdate": false,
    "name": "Modding-Chat",
    "category": "client",
    "description": "(Shift + ПКМ) В чате по нику, просмотр информации об игроке.",
    "author": "Foglio",
    "options": {
        "niceName": "Modding-Chat",
        "guiName": "Modding-Chat"
    },
    "servers": ["https://gitlab.com/truban/29_04-31_04/-/raw/main/modding-chat/"],
    "version": "v29.04-92.04"
}